SERIAL,GENDER,FAMILY_INFLUENCE,FRIENDS_INFLUENCE,APPLE_ECOSYSTEM,EMPLOYMENT,INCOME,AGE,CARRIER_LOCK,THIRD_PARTY,IPHONE_11_PURCHASE,EMI,IPHONE_12_PURCHASE,NAMES
1,1,0,0,0,1,14809,53,0,1,1,1,0,Ngga
2,2,1,1,0,1,11264,47,1,0,1,1,1,Beli
3,1,0,1,0,0,13463,28,1,1,0,1,0,Ngga
4,0,1,1,0,0,14064,25,0,1,1,1,1,Beli
5,1,0,1,0,0,19413,51,1,1,1,1,0,Ngga
6,1,1,1,0,1,7745,28,1,1,1,0,0,Ngga
7,0,0,1,1,0,16380,30,1,0,0,0,1,Beli
8,2,1,0,1,0,9622,50,0,0,1,1,0,Ngga
9,0,1,1,1,1,8989,37,1,1,0,1,0,Ngga
10,0,0,1,1,0,14717,33,1,1,1,1,1,Beli
11,0,1,1,1,0,7279,28,0,0,1,0,0,Ngga
12,1,0,1,1,1,17896,50,0,1,0,0,1,Beli
13,1,1,1,1,0,7795,59,0,1,0,0,0,Ngga
14,0,0,1,0,1,16411,15,0,0,1,1,0,Ngga
15,0,0,1,0,0,11516,19,0,1,0,0,0,Ngga
16,1,1,0,1,1,9271,14,0,1,0,0,0,Ngga
17,1,0,0,0,0,7709,43,0,1,0,0,0,Ngga
18,1,1,1,0,1,15116,21,0,1,1,0,1,Beli
19,1,0,1,0,0,4575,37,1,0,1,0,0,Ngga
20,1,0,1,1,0,13212,35,0,1,0,1,1,Beli
21,0,1,0,1,0,9508,38,1,0,0,0,0,Ngga
22,0,1,0,0,1,18252,60,1,0,0,1,0,Ngga
23,0,0,1,0,0,5279,45,1,0,0,0,0,Ngga
24,1,0,0,1,1,3557,23,0,0,0,1,0,Ngga
25,2,1,1,0,0,15195,20,1,1,1,0,1,Beli
26,0,0,0,1,0,8681,28,1,1,0,0,0,Ngga
27,1,1,0,0,1,6661,21,0,0,0,1,0,Ngga
28,1,0,0,1,1,13297,23,0,0,0,1,0,Ngga
29,0,0,0,1,0,19734,14,0,1,1,0,0,Ngga
30,1,0,1,1,0,12248,20,1,0,0,1,1,Beli
31,0,1,0,0,0,12168,33,1,0,1,0,0,Ngga
32,0,0,1,0,1,3773,46,1,1,0,1,0,Ngga
33,0,1,1,1,0,14782,45,1,0,1,1,1,Beli
34,1,1,0,0,1,18988,18,0,1,0,1,0,Ngga
35,0,1,1,1,1,14494,22,0,1,1,0,1,Beli
36,1,0,0,0,1,11538,20,0,1,1,0,0,Ngga
37,1,0,1,0,0,6862,44,1,1,0,1,0,Ngga
38,0,1,0,1,0,18759,35,1,0,0,0,1,Beli
39,1,1,0,0,1,17932,59,0,0,1,0,0,Ngga
40,0,1,0,0,0,18448,58,1,0,1,0,0,Ngga
41,0,0,1,0,0,3041,58,0,1,1,0,0,Ngga
42,1,0,0,0,0,13708,45,0,0,1,0,0,Ngga
43,1,0,1,0,1,18535,18,1,1,1,0,0,Ngga
44,1,1,0,0,1,9804,16,1,1,1,1,0,Ngga
45,0,1,1,1,0,16739,57,1,0,0,0,1,Beli
46,1,1,0,0,0,13742,47,1,1,0,1,0,Ngga
47,1,1,0,1,1,8908,44,1,1,1,0,0,Ngga
48,1,0,1,0,0,9149,46,0,1,1,0,0,Ngga
49,2,1,0,0,0,12609,42,0,1,0,0,0,Ngga
50,0,0,1,0,0,15005,50,0,1,0,1,0,Ngga
51,0,1,0,0,0,9564,57,0,1,0,1,0,Ngga
52,1,1,1,1,1,16236,49,1,1,0,1,1,Beli
53,1,0,0,0,1,13210,23,1,1,0,1,0,Ngga
54,1,0,1,1,0,9409,44,1,0,1,1,0,Ngga
55,1,0,1,1,1,19584,51,1,1,0,0,1,Beli
56,1,0,0,1,0,10421,14,1,1,0,0,0,Ngga
57,0,1,1,1,1,7080,42,1,0,1,1,0,Ngga
58,0,1,1,1,1,19755,25,0,0,0,1,1,Beli
59,1,1,0,1,1,4527,29,1,0,0,0,0,Ngga
60,0,1,1,1,0,11715,54,1,0,0,1,1,Beli
61,1,1,0,1,1,13119,33,1,1,0,0,1,Beli
62,1,0,1,0,1,3882,18,0,0,0,1,0,Ngga
63,0,1,1,1,1,10937,15,1,1,1,0,1,Beli
64,1,0,0,1,1,10947,57,0,0,1,1,0,Ngga
65,0,1,0,0,0,11870,48,1,0,1,0,0,Ngga
66,0,0,1,0,0,3207,59,1,0,1,1,0,Ngga
67,0,1,0,0,1,19608,50,0,1,0,0,0,Ngga
68,0,1,1,0,1,7537,13,0,1,1,0,0,Ngga
69,0,1,0,0,1,15890,60,0,0,1,0,0,Ngga
70,0,0,1,0,1,6760,45,0,0,0,1,0,Ngga
71,0,1,0,0,1,17970,54,0,1,1,1,0,Ngga
72,1,1,0,1,0,5734,54,0,1,0,0,0,Ngga
73,0,1,1,0,0,7832,37,1,0,1,1,0,Ngga
74,0,0,0,1,1,3690,26,1,1,1,0,0,Ngga
75,0,0,0,0,1,11396,26,0,0,0,0,0,Ngga
76,0,0,0,1,1,19822,42,0,0,0,1,0,Ngga
77,1,0,1,1,0,15455,31,0,1,1,1,1,Beli
78,0,0,0,1,1,7862,25,1,1,0,1,0,Ngga
79,0,1,0,0,0,5937,15,0,1,0,1,0,Ngga
80,0,0,1,1,1,18806,14,0,1,1,1,1,Beli
81,1,1,1,0,1,16196,18,0,0,0,0,0,Ngga
82,0,0,1,0,1,17072,37,1,1,1,1,0,Ngga
83,0,0,0,1,0,14497,51,1,1,0,0,0,Ngga
84,0,0,0,1,0,19088,43,0,1,1,1,0,Ngga
85,1,1,1,0,1,19090,53,0,0,1,0,1,Beli
86,0,1,0,1,0,4491,31,0,0,1,1,0,Ngga
87,0,0,1,0,1,7867,43,1,0,0,1,0,Ngga
88,1,0,0,0,0,18184,54,0,1,0,0,0,Ngga
89,0,1,0,1,0,6334,38,0,1,1,1,0,Ngga
90,1,0,1,1,0,6331,30,1,1,0,1,0,Ngga
91,0,1,1,0,1,19892,38,1,1,1,1,1,Beli
92,1,0,0,1,1,5209,40,0,1,0,1,0,Ngga
93,1,0,0,1,0,8006,23,1,0,0,0,0,Ngga
94,1,1,1,0,0,15450,58,1,1,0,0,1,Beli
95,0,1,0,0,1,5799,58,1,0,0,0,0,Ngga
96,1,0,1,0,1,17611,38,1,0,1,1,0,Ngga
97,1,1,0,1,0,14754,45,1,1,0,1,1,Beli
98,1,1,1,0,0,16210,37,1,0,0,0,1,Beli
99,0,0,1,1,0,7341,26,0,1,1,1,0,Ngga
100,1,1,1,1,1,12948,18,1,1,1,0,1,Beli
101,0,1,1,0,1,5893,30,0,0,0,0,0,Ngga
102,1,1,1,0,0,9377,25,0,1,1,1,0,Ngga
103,0,1,1,0,0,6826,30,0,0,0,1,0,Ngga
104,2,1,0,0,0,9688,45,0,1,0,0,0,Ngga
105,1,0,1,1,1,19523,55,1,0,1,1,1,Beli
106,1,1,0,1,1,6652,15,1,0,0,1,0,Ngga
107,1,1,1,0,0,10808,20,0,0,0,1,1,Beli
108,1,1,1,0,0,10478,21,1,1,1,1,1,Beli
109,1,0,0,1,1,19533,22,1,1,0,0,0,Ngga
110,1,1,0,0,0,10460,25,0,0,1,0,0,Ngga
111,0,1,1,0,0,10166,37,1,1,0,0,1,Beli
112,1,1,0,1,0,4939,58,0,0,0,0,0,Ngga
113,0,1,1,0,1,18488,42,0,0,1,0,1,Beli
114,1,1,1,0,0,9057,54,0,1,0,1,0,Ngga
115,0,0,0,1,1,6364,49,0,1,1,0,0,Ngga
116,1,0,0,1,0,15338,53,1,1,1,0,0,Ngga
117,0,0,1,1,0,6788,58,0,0,1,1,0,Ngga
118,0,0,1,1,0,8410,33,0,1,0,1,0,Ngga
119,1,0,1,0,0,4868,43,1,1,1,0,0,Ngga
120,1,1,1,0,0,11488,29,0,0,0,0,1,Beli
121,2,0,0,0,1,17816,45,0,0,1,0,0,Ngga
122,1,1,0,1,0,19207,41,0,0,1,1,1,Beli
123,0,1,0,0,1,17482,42,1,1,0,1,0,Ngga
124,0,0,1,1,1,10328,16,0,0,1,1,1,Beli
125,0,0,1,1,0,11140,34,0,0,1,1,1,Beli
126,1,1,1,0,1,6252,52,0,0,0,0,0,Ngga
127,1,1,1,1,1,6559,21,0,0,1,1,0,Ngga
128,0,0,0,1,0,16890,29,0,0,0,1,0,Ngga
129,1,1,0,0,0,9881,24,1,0,0,1,0,Ngga
130,1,1,0,1,0,7547,53,1,1,0,1,0,Ngga
131,1,1,1,1,0,4463,44,1,1,1,1,0,Ngga
132,1,0,0,0,1,11930,14,0,0,0,1,0,Ngga
133,1,1,0,1,1,12334,40,1,1,1,0,1,Beli
134,1,0,1,0,0,3917,51,1,1,1,1,0,Ngga
135,1,1,1,1,1,5917,23,1,1,0,0,0,Ngga
136,1,1,0,0,0,16574,58,1,1,1,1,0,Ngga
137,0,0,0,0,1,4829,40,0,0,1,0,0,Ngga
138,1,0,1,0,1,11287,50,0,1,0,1,0,Ngga
139,0,0,1,0,1,5981,32,0,0,1,0,0,Ngga
140,1,0,0,0,1,15129,46,1,1,0,1,0,Ngga
141,0,0,0,1,1,14352,17,1,1,0,1,0,Ngga
142,1,0,0,0,1,9649,22,1,1,1,1,0,Ngga
143,1,0,1,0,1,10693,35,0,0,0,0,0,Ngga
144,1,1,1,0,1,16331,39,0,1,1,0,1,Beli
145,0,1,1,0,0,19485,42,0,1,0,1,1,Beli
146,0,0,1,1,0,11240,31,0,0,1,1,1,Beli
147,0,0,1,1,0,14104,34,0,1,0,1,1,Beli
148,1,0,0,1,1,7393,22,0,1,1,1,0,Ngga
149,1,0,0,1,0,7741,19,0,0,0,0,0,Ngga
150,0,0,0,0,1,12229,43,1,1,1,1,0,Ngga
151,1,0,1,1,0,13651,33,1,1,0,0,1,Beli
152,1,0,0,1,1,12943,37,0,0,1,0,0,Ngga
153,0,0,0,1,1,14627,38,0,1,1,0,0,Ngga
154,0,0,0,0,1,10658,38,0,1,1,1,0,Ngga
155,1,0,1,1,0,8482,56,0,0,1,0,0,Ngga
156,2,1,0,0,0,10947,40,1,0,0,1,0,Ngga
157,1,1,0,1,1,4842,40,0,1,1,1,0,Ngga
158,0,0,1,0,1,7395,20,1,0,0,1,0,Ngga
159,1,0,0,1,0,10303,30,1,0,0,0,0,Ngga
160,1,0,0,1,0,11006,33,0,1,1,0,0,Ngga
161,0,0,0,1,0,4537,16,0,0,0,1,0,Ngga
162,0,1,1,1,0,5311,46,0,0,1,0,0,Ngga
163,1,1,0,1,0,15911,33,0,1,0,1,1,Beli
164,1,0,0,1,1,16522,19,1,0,1,1,0,Ngga
165,1,0,0,0,0,10327,33,1,1,0,1,0,Ngga
166,1,1,1,0,0,13412,15,1,0,1,0,1,Beli
167,1,1,1,0,1,9593,41,1,0,0,0,0,Ngga
168,0,0,0,0,0,7671,21,0,1,1,1,0,Ngga
169,1,0,1,1,0,16945,31,1,0,1,0,1,Beli
170,1,1,1,1,0,13039,37,1,0,0,0,1,Beli
171,1,0,1,0,0,9469,42,1,1,0,0,0,Ngga
172,0,0,0,1,0,9236,38,0,0,0,1,0,Ngga
173,0,0,1,0,1,3196,29,1,1,1,1,0,Ngga
174,0,0,0,1,1,4141,55,1,1,0,0,0,Ngga
175,0,0,0,1,1,5149,16,0,1,0,1,0,Ngga
176,0,1,0,1,1,11428,25,0,0,0,0,1,Beli
177,1,0,1,1,1,12740,29,1,0,1,1,1,Beli
178,1,1,0,1,1,6878,40,1,0,1,1,0,Ngga
179,0,1,1,0,0,14441,51,1,0,1,1,1,Beli
180,1,1,1,0,1,3498,60,1,1,1,0,0,Ngga
181,0,1,0,0,0,8852,52,1,0,0,1,0,Ngga
182,0,0,1,1,0,7828,39,0,0,1,1,0,Ngga
183,0,1,1,0,0,5407,40,1,0,0,1,0,Ngga
184,1,0,1,0,1,6813,54,0,0,1,1,0,Ngga
185,0,0,1,0,1,9862,19,1,1,1,1,0,Ngga
186,0,0,1,0,0,10369,40,1,0,1,0,0,Ngga
187,1,0,1,0,0,13763,59,0,0,1,1,0,Ngga
188,2,0,0,1,0,11988,38,0,1,0,0,0,Ngga
189,0,0,0,1,1,6717,36,0,0,1,0,0,Ngga
190,1,0,1,1,0,3821,37,0,0,0,0,0,Ngga
191,0,0,1,0,1,18469,35,1,1,0,0,0,Ngga
192,0,1,1,0,0,15705,26,0,0,1,0,1,Beli
193,0,0,0,0,0,6809,38,0,1,0,1,0,Ngga
194,1,1,0,0,0,4608,60,1,1,1,0,0,Ngga
195,1,1,0,0,0,11855,34,1,0,0,1,0,Ngga
196,0,0,1,1,0,15595,33,0,1,0,0,1,Beli
197,0,0,1,1,0,11185,45,1,1,1,1,1,Beli
198,1,1,0,1,1,14923,21,1,1,0,1,1,Beli
199,0,0,1,1,0,16596,54,0,1,0,1,1,Beli
200,1,0,0,0,1,18248,19,1,1,1,0,0,Ngga
201,0,0,0,1,0,5886,23,1,1,0,0,0,Ngga
202,1,1,1,1,1,9184,27,1,1,1,0,0,Ngga
203,1,1,1,1,1,16907,57,1,0,0,0,1,Beli
204,0,0,1,0,1,11663,59,0,1,1,1,0,Ngga
205,1,1,0,0,0,19108,43,0,1,1,0,0,Ngga
206,0,0,0,1,1,15909,45,1,1,1,0,0,Ngga
207,0,1,0,1,1,3778,33,1,0,0,1,0,Ngga
208,0,1,0,0,1,5344,31,0,0,0,0,0,Ngga
209,0,0,1,1,1,3273,27,0,1,0,1,0,Ngga
210,0,1,1,0,0,13259,44,0,0,0,0,1,Beli
211,1,1,1,0,1,13827,20,0,0,1,0,1,Beli
212,0,0,1,0,1,4625,19,0,0,1,0,0,Ngga
213,0,1,0,1,0,10932,30,0,0,0,0,1,Beli
214,1,1,0,1,1,19609,29,0,1,1,0,1,Beli
215,0,1,1,1,0,9731,50,0,1,0,0,0,Ngga
216,0,1,0,1,1,11630,19,0,0,1,1,1,Beli
217,0,0,0,1,0,16700,21,0,0,1,1,0,Ngga
218,1,0,0,1,1,13263,37,0,1,1,0,0,Ngga
219,0,1,0,1,1,12908,36,0,0,0,1,1,Beli
220,1,0,0,0,1,16342,49,1,0,0,0,0,Ngga
221,0,0,1,0,1,18745,50,1,1,1,0,0,Ngga
222,1,1,0,1,1,17441,34,1,1,1,0,1,Beli
223,1,0,0,0,0,13965,29,0,0,0,1,0,Ngga
224,0,0,1,0,1,4948,49,0,0,1,0,0,Ngga
225,1,1,0,0,1,10386,40,0,1,0,1,0,Ngga
226,2,1,0,1,0,18664,41,0,0,1,0,1,Beli
227,1,0,1,1,0,10608,38,0,1,0,0,1,Beli
228,1,0,1,1,1,10519,45,1,0,0,1,1,Beli
229,1,1,0,0,0,9617,56,0,0,0,0,0,Ngga
230,1,1,0,1,0,4887,39,1,0,0,0,0,Ngga
231,0,1,0,1,1,18835,35,0,0,0,1,1,Beli
232,1,1,1,1,0,10920,23,0,1,1,0,1,Beli
233,1,1,1,1,0,16977,32,1,0,1,0,1,Beli
234,0,1,0,1,0,14103,45,0,0,0,1,1,Beli
235,0,1,0,0,1,12111,47,0,0,1,0,0,Ngga
236,1,0,1,1,0,7393,34,1,0,1,0,0,Ngga
237,1,0,0,1,1,4294,45,0,0,0,0,0,Ngga
238,1,1,1,0,1,10989,43,1,0,1,0,1,Beli
239,1,1,0,0,0,14872,17,1,0,1,1,0,Ngga
240,1,0,1,0,1,10902,37,1,1,1,0,0,Ngga
241,1,1,1,1,1,5307,18,0,1,0,0,0,Ngga
242,1,1,0,1,0,11046,56,0,1,1,1,1,Beli
243,1,1,0,0,1,4142,19,0,1,1,0,0,Ngga
244,0,0,1,0,1,12201,49,0,1,1,1,0,Ngga
245,1,0,1,1,0,7513,59,0,0,1,1,0,Ngga
246,1,0,0,0,1,4765,14,1,0,1,1,0,Ngga
247,0,0,1,1,0,8811,32,1,0,0,0,0,Ngga
248,0,1,1,0,0,12348,36,1,1,1,0,1,Beli
249,0,1,0,0,1,15127,56,1,1,0,0,0,Ngga
250,1,1,0,0,1,4094,60,1,1,1,0,0,Ngga
251,0,0,0,0,0,3864,50,0,1,1,0,0,Ngga
252,1,0,0,1,1,9665,34,1,0,1,0,0,Ngga
253,1,1,1,0,1,18094,46,0,1,1,0,1,Beli
254,0,0,1,0,1,15783,16,1,1,1,1,0,Ngga
255,1,1,1,1,0,11857,44,1,1,1,0,1,Beli
256,0,0,1,1,0,13571,43,1,1,1,1,1,Beli
257,1,0,0,1,1,6414,18,1,1,1,1,0,Ngga
258,0,0,1,1,1,11012,48,1,1,0,0,1,Beli
259,1,1,0,1,0,8872,47,0,1,1,0,0,Ngga
260,1,0,0,1,1,10688,38,1,0,1,1,0,Ngga
261,0,1,0,1,0,10020,24,0,1,0,0,1,Beli
262,0,1,1,1,1,11708,25,0,1,0,0,1,Beli
263,1,0,0,1,1,18707,31,0,0,1,0,0,Ngga
264,0,1,1,1,1,19333,41,1,0,1,1,1,Beli
265,0,0,1,1,0,10537,60,1,0,0,0,1,Beli
266,2,0,1,0,1,10938,55,1,0,0,0,0,Ngga
267,1,1,0,0,0,13943,35,0,1,1,0,0,Ngga
268,1,1,0,0,0,3415,24,0,1,1,1,0,Ngga
269,1,1,0,0,0,18085,26,1,1,1,0,0,Ngga
270,1,0,0,1,1,3255,53,0,0,0,0,0,Ngga
271,0,0,0,0,0,17976,52,1,0,1,1,0,Ngga
272,0,1,0,1,0,7989,32,1,1,1,0,0,Ngga
273,0,0,1,0,0,10589,38,0,1,0,1,0,Ngga
274,1,1,0,1,0,9469,55,0,0,1,1,0,Ngga
275,0,0,1,1,1,3984,22,0,0,1,1,0,Ngga
276,1,1,1,1,1,12180,14,0,0,1,1,1,Beli
277,0,1,0,1,0,18226,37,0,0,0,1,1,Beli
278,0,1,1,0,1,8796,41,1,0,1,1,0,Ngga
279,0,1,0,1,0,12025,14,1,0,0,0,1,Beli
280,1,0,0,1,1,17828,18,1,0,0,0,0,Ngga
281,0,0,0,1,1,14002,41,0,0,1,0,0,Ngga
282,1,0,1,1,1,15794,53,0,1,0,0,1,Beli
283,0,0,1,0,1,15811,40,1,1,1,1,0,Ngga
284,1,1,0,0,0,17973,27,0,1,1,0,0,Ngga
285,0,0,0,0,1,12373,35,1,1,1,0,0,Ngga
286,1,0,1,1,0,16011,30,0,1,0,1,1,Beli
287,0,1,1,0,1,16184,39,0,1,1,1,1,Beli
288,1,1,1,1,0,17150,37,0,1,1,0,1,Beli
289,1,0,0,1,0,13353,22,0,1,1,0,0,Ngga
290,0,0,0,1,1,11048,26,0,0,1,0,0,Ngga
291,1,0,0,0,0,16906,46,0,1,1,0,0,Ngga
292,1,0,0,1,1,6416,59,0,0,1,0,0,Ngga
293,1,0,1,1,0,10029,24,0,0,1,1,1,Beli
294,1,1,0,0,0,5603,42,1,0,0,0,0,Ngga
295,0,1,1,1,0,4987,38,1,0,0,1,0,Ngga
296,0,0,1,1,0,14911,22,1,1,0,0,1,Beli
297,1,1,1,0,0,15370,60,1,1,0,1,1,Beli
298,1,0,1,0,0,12403,38,1,0,0,1,0,Ngga
299,0,1,1,1,0,5652,45,0,0,0,1,0,Ngga
300,0,1,0,1,1,11726,40,0,0,1,1,1,Beli
301,0,0,0,0,1,4422,40,1,1,0,1,0,Ngga
302,2,0,1,1,0,3064,47,0,0,0,0,0,Ngga
303,0,1,1,1,1,11286,51,0,1,0,1,1,Beli
304,0,0,1,1,1,5903,14,1,0,0,1,0,Ngga
305,0,0,1,0,1,10927,26,0,0,0,1,0,Ngga
306,1,0,1,0,0,12726,31,1,0,0,0,0,Ngga
307,1,0,1,1,1,6864,34,1,0,1,0,0,Ngga
308,0,0,1,1,1,9629,44,1,1,1,0,0,Ngga
309,0,1,1,1,0,6020,43,0,0,1,1,0,Ngga
310,0,1,0,0,0,13718,27,1,0,0,1,0,Ngga
311,1,1,0,0,0,16192,15,0,1,0,0,0,Ngga
312,1,0,1,1,1,4470,50,1,0,0,1,0,Ngga
313,0,1,0,1,0,14901,46,1,0,1,1,1,Beli
314,0,1,0,1,1,15622,37,1,0,1,1,1,Beli
315,0,1,1,0,0,3665,58,0,0,1,1,0,Ngga
316,0,1,0,1,0,12950,45,0,0,1,0,1,Beli
317,1,1,1,0,0,4601,21,1,0,1,1,0,Ngga
318,0,1,1,0,1,14752,23,1,1,0,1,1,Beli
319,0,1,1,0,1,9613,28,1,1,1,1,0,Ngga
320,0,1,1,1,1,7129,31,1,1,1,0,0,Ngga
321,0,1,1,1,0,11727,40,1,1,0,0,1,Beli
322,0,0,0,1,0,7263,52,0,0,1,1,0,Ngga
323,1,1,0,0,0,16358,26,0,0,0,0,0,Ngga
324,1,0,1,1,0,5138,45,0,1,0,0,0,Ngga
325,1,1,0,1,0,9445,31,0,0,1,0,0,Ngga
326,0,1,1,0,0,10019,36,1,0,0,0,1,Beli
327,0,1,1,1,1,5960,39,1,0,0,1,0,Ngga
328,0,0,1,1,1,6335,56,0,0,1,0,0,Ngga
329,1,1,0,1,1,7316,30,1,1,1,1,0,Ngga
330,0,0,1,1,0,5345,33,0,1,1,1,0,Ngga
331,0,1,0,1,1,15528,14,0,0,0,1,1,Beli
332,0,1,0,0,0,9186,43,0,1,0,0,0,Ngga
333,1,0,0,1,0,7266,40,0,0,0,0,0,Ngga
334,0,0,1,1,1,10736,40,0,1,1,0,1,Beli
335,0,1,0,1,0,14168,16,1,0,1,1,1,Beli
336,0,0,1,1,0,12929,49,0,0,0,0,1,Beli
337,0,0,1,0,0,14741,23,1,0,1,1,0,Ngga
338,1,1,0,1,1,10394,22,1,1,0,0,1,Beli
339,1,1,0,1,0,8007,19,0,0,1,1,0,Ngga
340,0,0,1,0,1,19937,36,0,1,0,1,0,Ngga
341,2,1,0,0,1,4569,59,0,1,1,0,0,Ngga
342,1,1,1,1,0,18627,56,0,1,1,0,1,Beli
343,1,0,0,0,1,18974,34,0,0,1,0,0,Ngga
344,0,0,1,0,0,18685,18,0,0,0,0,0,Ngga
345,1,0,0,0,1,5882,28,1,1,1,0,0,Ngga
346,1,1,1,0,0,3468,60,1,0,0,0,0,Ngga
347,0,0,0,1,0,8993,13,0,1,0,1,0,Ngga
348,1,0,1,0,0,11837,13,0,1,1,0,0,Ngga
349,1,1,1,1,0,15604,55,1,0,1,1,1,Beli
350,1,0,0,0,0,12669,14,0,1,0,1,0,Ngga
351,1,1,1,0,0,14900,15,0,0,0,0,1,Beli
352,1,0,1,1,1,14163,38,1,1,1,0,1,Beli
353,0,1,1,0,1,10929,58,0,0,1,0,1,Beli
354,0,1,0,1,1,3182,38,0,0,0,1,0,Ngga
355,0,1,1,0,0,4953,22,0,1,1,1,0,Ngga
356,1,0,0,1,0,14309,41,1,0,0,0,0,Ngga
357,1,1,0,1,1,13537,20,1,1,0,0,1,Beli
358,1,1,1,0,1,3020,47,0,1,1,1,0,Ngga
359,1,0,1,1,0,18402,51,0,0,1,0,1,Beli
360,0,1,0,1,0,5312,30,0,0,1,0,0,Ngga
361,0,0,0,0,0,5782,34,0,1,0,1,0,Ngga
362,1,1,0,0,1,14553,33,1,0,1,0,0,Ngga
363,0,0,0,0,1,10849,50,0,0,0,0,0,Ngga
364,1,0,0,0,0,9671,14,0,0,1,1,0,Ngga
365,0,1,1,0,0,12591,18,1,0,0,0,0,Ngga
366,0,0,1,1,1,14790,53,1,0,0,0,1,Beli
367,1,0,1,0,0,6426,38,1,0,1,0,0,Ngga
368,0,0,1,1,0,5465,45,1,0,1,0,0,Ngga
369,1,1,0,0,0,11506,37,0,1,0,1,0,Ngga
370,1,0,1,0,1,14882,17,0,0,0,1,0,Ngga
371,1,0,0,1,1,6539,25,0,1,0,0,0,Ngga
372,0,0,1,0,1,4823,51,1,0,0,0,0,Ngga
373,0,0,0,0,1,11370,56,0,1,1,1,0,Ngga
374,2,1,1,1,0,13504,21,1,1,1,0,1,Beli
375,1,0,1,0,0,13764,26,1,0,0,0,0,Ngga
376,1,1,0,1,0,16214,19,1,0,0,1,1,Beli
377,1,0,0,1,1,9460,25,0,0,0,0,0,Ngga
378,1,0,1,0,1,19424,29,0,0,1,1,0,Ngga
379,1,1,0,0,1,15608,31,1,1,0,1,0,Ngga
380,1,1,0,1,0,16554,29,1,1,1,0,1,Beli
381,0,1,1,1,0,6094,37,0,0,0,1,0,Ngga
382,1,0,0,1,1,19745,25,1,1,0,0,0,Ngga
383,0,1,0,0,0,18749,50,0,1,1,1,0,Ngga
384,0,0,0,0,1,4732,60,0,0,0,1,0,Ngga
385,0,1,1,0,0,18797,21,1,0,1,1,1,Beli
386,0,0,1,0,0,14874,32,0,1,0,0,0,Ngga
387,0,0,0,1,1,17084,26,0,0,1,1,0,Ngga
388,0,1,1,0,1,15483,14,0,0,1,0,1,Beli
389,1,1,0,1,0,9284,59,1,1,0,0,0,Ngga
390,0,1,1,0,0,9547,54,1,0,1,0,0,Ngga
391,1,1,0,0,1,7853,34,1,0,0,0,0,Ngga
392,1,0,0,0,0,10509,56,1,0,1,1,0,Ngga
393,0,0,1,1,0,9669,37,1,0,0,1,0,Ngga
394,0,0,0,1,1,3361,17,0,1,0,1,0,Ngga
395,1,0,0,1,0,18411,19,0,0,0,0,0,Ngga
396,1,0,0,0,0,17123,47,0,0,0,1,0,Ngga
397,1,0,1,0,1,16443,23,1,0,1,1,0,Ngga
398,1,0,1,0,1,15461,13,1,1,1,1,0,Ngga
399,2,0,0,0,0,17375,58,1,0,0,0,0,Ngga
400,1,1,0,1,0,8007,19,0,0,1,1,0,Ngga
401,0,0,1,0,1,19937,36,0,1,0,1,0,Ngga
402,2,1,0,0,1,4569,59,0,1,1,0,0,Ngga
403,1,1,1,1,0,18627,56,0,1,1,0,1,Beli
404,1,0,0,0,1,18974,34,0,0,1,0,0,Ngga
405,0,0,1,0,0,18685,18,0,0,0,0,0,Ngga
406,1,0,0,0,1,5882,28,1,1,1,0,0,Ngga
407,1,1,1,0,0,3468,60,1,0,0,0,0,Ngga
408,0,0,0,1,0,8993,13,0,1,0,1,0,Ngga
409,1,0,1,0,0,11837,13,0,1,1,0,0,Ngga
410,1,1,1,1,0,15604,55,1,0,1,1,1,Beli
411,1,0,0,0,0,12669,14,0,1,0,1,0,Ngga
412,1,1,1,0,0,14900,15,0,0,0,0,1,Beli
413,1,0,1,1,1,14163,38,1,1,1,0,1,Beli
414,0,1,1,0,1,10929,58,0,0,1,0,1,Beli
415,0,1,0,1,1,3182,38,0,0,0,1,0,Ngga
416,0,1,1,0,0,4953,22,0,1,1,1,0,Ngga
417,1,0,0,1,0,14309,41,1,0,0,0,0,Ngga
418,1,1,0,1,1,13537,20,1,1,0,0,1,Beli
419,1,1,1,0,1,3020,47,0,1,1,1,0,Ngga
420,1,0,1,1,0,18402,51,0,0,1,0,1,Beli
421,0,1,0,1,0,5312,30,0,0,1,0,0,Ngga
422,0,0,0,0,0,5782,34,0,1,0,1,0,Ngga
423,1,1,0,0,1,14553,33,1,0,1,0,0,Ngga
424,0,0,0,0,1,10849,50,0,0,0,0,0,Ngga
425,1,0,0,0,0,9671,14,0,0,1,1,0,Ngga
426,0,1,1,0,0,12591,18,1,0,0,0,0,Ngga
